Advanced plans
…
Exercise 3

Recall: with !!, you can generate commands programmatically.

xs <- seq_len(100)
drake_plan(
  y = target(
    f(x),
    transform = map(x = !!xs)
  )
)
#> # A tibble: 100 x 2
#>    target command
#>    <chr>  <expr> 
#>  1 y_1L   f(1L)  
#>  2 y_2L   f(2L)  
#>  3 y_3L   f(3L)  
#>  4 y_4L   f(4L)  
#>  5 y_5L   f(5L)  
#>  6 y_6L   f(6L)  
#>  7 y_7L   f(7L)  
#>  8 y_8L   f(8L)  
#>  9 y_9L   f(9L)  
#> 10 y_10L  f(10L) 
#> # … with 90 more rows
…
